{"success":true,"items":[{"id":3,"symbol":"AAMI","date":"2024-03-20T05:00:00.000Z","timeframe":"daily","open":22.25,"high":22.920000076293945,"low":22.25,"close":22.600000381469727,"volume":"168100","signal":"BUY","signal_type":"RANGE_BOUNCE_LOW","range_high":23.360000610351562,"range_low":22.274999618530273,"range_position":29.953959986147566,"range_age_days":28,"range_strength":4,"range_height_pct":null,"entry_price":22.600000381469727,"stop_level":21.829499626159667,"target_1":23.14250087738037,"target_2":23.360000610351562,"risk_pct":3.41,"risk_reward_ratio":0.7,"rsi":48.192784927790676,"adx":32.19152429447606,"atr":0.39964280809674946,"td_buy_setup_count":7,"td_sell_setup_count":0,"td_buy_setup_complete":false,"td_sell_setup_complete":false,"td_pressure":38.32344880859525,"security_name":"Acadian Asset Management Inc. Common Stock"}],"pagination":{"limit":1,"offset":0,"total":"2","page":1,"totalPages":2,"hasNext":true,"hasPrev":false},"timestamp":"2026-04-30T19:49:57.998Z"}