{"success":true,"data":[{"symbol":"A","date":"2025-06-12T00:00:00.000Z","rsi":67.0303,"macd":2.245907,"macd_signal":1.452834,"macd_hist":0.793074,"mom":5.63,"roc":4.97,"adx":37.0605,"atr":2.8049,"ad":701323325.8425,"cmf":0.1175,"mfi":59.4425,"td_sequential":-8,"td_combo":1,"marketwatch":-2,"dm":-1.14,"sma_10":115.63,"sma_20":113.5965,"sma_50":109.2862,"sma_150":126.1513,"sma_200":129.3638,"ema_4":118.5653,"ema_9":116.7054,"ema_21":114.1552,"bbands_lower":106.8261,"bbands_middle":113.5965,"bbands_upper":120.3669,"pivot_high":120.05,"pivot_low":118.53,"pivot_high_triggered":null,"pivot_low_triggered":null,"company_name":"Agilent Technologies, Inc. Common Stock"},{"symbol":"AA","date":"2025-06-12T00:00:00.000Z","rsi":66.7299,"macd":0.372118,"macd_signal":0.273677,"macd_hist":0.098441,"mom":1.23,"roc":4.4517,"adx":23.5367,"atr":1.0589,"ad":-17933672.2572,"cmf":-0.035,"mfi":65.6392,"td_sequential":-6,"td_combo":-8,"marketwatch":1,"dm":-0.608,"sma_10":27.92,"sma_20":28.1626,"sma_50":26.5148,"sma_150":33.8754,"sma_200":34.5424,"ema_4":28.6455,"ema_9":28.3104,"ema_21":27.9003,"bbands_lower":26.6899,"bbands_middle":28.1626,"bbands_upper":29.6353,"pivot_high":28.893,"pivot_low":27.98,"pivot_high_triggered":null,"pivot_low_triggered":null,"company_name":"Alcoa Corporation Common Stock"},{"symbol":"AACG","date":"2025-06-12T00:00:00.000Z","rsi":36.7846,"macd":-0.025177,"macd_signal":-0.020484,"macd_hist":-0.004693,"mom":-0.0769,"roc":-8.5444,"adx":30.8076,"atr":0.0468,"ad":123472649.6832,"cmf":0.283,"mfi":43.5644,"td_sequential":1,"td_combo":2,"marketwatch":-3,"dm":-0.03,"sma_10":0.8583,"sma_20":0.8857,"sma_50":0.9183,"sma_150":0.9184,"sma_200":0.8826,"ema_4":0.8426,"ema_9":0.8566,"ema_21":0.8822,"bbands_lower":0.813,"bbands_middle":0.8857,"bbands_upper":0.9583,"pivot_high":0.8525,"pivot_low":0.82,"pivot_high_triggered":null,"pivot_low_triggered":null,"company_name":"ATA Creativity Global - American Depositary Shares, each representing two common shares"},{"symbol":"AAL","date":"2025-06-12T00:00:00.000Z","rsi":34.1113,"macd":0.096464,"macd_signal":0.176476,"macd_hist":-0.080012,"mom":-0.5,"roc":-4.386,"adx":24.8403,"atr":0.4314,"ad":-2835407190.0666,"cmf":0.0093,"mfi":39.3888,"td_sequential":2,"td_combo":2,"marketwatch":1,"dm":-0.31,"sma_10":11.429,"sma_20":11.486,"sma_50":10.6716,"sma_150":13.7055,"sma_200":13.1952,"ema_4":11.2298,"ema_9":11.3695,"ema_21":11.3295,"bbands_lower":10.9332,"bbands_middle":11.486,"bbands_upper":12.0388,"pivot_high":10.9648,"pivot_low":10.68,"pivot_high_triggered":null,"pivot_low_triggered":null,"company_name":"American Airlines Group, Inc. - Common Stock"},{"symbol":"AAME","date":"2025-06-12T00:00:00.000Z","rsi":73.0598,"macd":0.04371,"macd_signal":0.038803,"macd_hist":0.004907,"mom":0.18,"roc":10.8434,"adx":23.3724,"atr":0.0952,"ad":-92688958.7729,"cmf":0.2995,"mfi":65.8612,"td_sequential":-2,"td_combo":-4,"marketwatch":2,"dm":-0.0277,"sma_10":1.748,"sma_20":1.7285,"sma_50":1.6069,"sma_150":1.5622,"sma_200":1.5754,"ema_4":1.7963,"ema_9":1.7633,"ema_21":1.7229,"bbands_lower":1.6419,"bbands_middle":1.7285,"bbands_upper":1.8151,"pivot_high":1.855,"pivot_low":1.7323,"pivot_high_triggered":null,"pivot_low_triggered":null,"company_name":"Atlantic American Corporation - Common Stock"},{"symbol":"AAMI","date":"2025-06-12T00:00:00.000Z","rsi":80.6898,"macd":0.78534,"macd_signal":0.716902,"macd_hist":0.068437,"mom":1.69,"roc":5.624,"adx":32.3744,"atr":0.6818,"ad":-20367455.9989,"cmf":0.2288,"mfi":60.9412,"td_sequential":-5,"td_combo":-7,"marketwatch":4,"dm":-0.383,"sma_10":30.611,"sma_20":30.2895,"sma_50":28.3028,"sma_150":27.3468,"sma_200":26.7693,"ema_4":31.4038,"ema_9":30.9183,"ema_21":30.2063,"bbands_lower":28.8885,"bbands_middle":30.2895,"bbands_upper":31.6905,"pivot_high":31.845,"pivot_low":31.027,"pivot_high_triggered":null,"pivot_low_triggered":null,"company_name":"Acadian Asset Management Inc. Common Stock"},{"symbol":"AAOI","date":"2025-06-12T00:00:00.000Z","rsi":52.3781,"macd":0.164171,"macd_signal":0.323678,"macd_hist":-0.159507,"mom":-0.01,"roc":-0.0591,"adx":15.8568,"atr":1.5845,"ad":-84562122.0638,"cmf":-0.3166,"mfi":64.2214,"td_sequential":-2,"td_combo":-1,"marketwatch":-4,"dm":2.26,"sma_10":16.4445,"sma_20":17.2853,"sma_50":14.8735,"sma_150":23.8195,"sma_200":21.5622,"ema_4":16.6674,"ema_9":16.7048,"ema_21":16.6598,"bbands_lower":15.0901,"bbands_middle":17.2853,"bbands_upper":19.4804,"pivot_high":19.76,"pivot_low":16.67,"pivot_high_triggered":null,"pivot_low_triggered":null,"company_name":"Applied Optoelectronics, Inc. - Common Stock"},{"symbol":"AAON","date":"2025-06-12T00:00:00.000Z","rsi":12.0062,"macd":-3.721794,"macd_signal":-0.597323,"macd_hist":-3.124471,"mom":-21.8986,"roc":-22.7995,"adx":49.5409,"atr":4.4624,"ad":135880167.0653,"cmf":-0.3948,"mfi":18.8057,"td_sequential":4,"td_combo":4,"marketwatch":-4,"dm":-0.36,"sma_10":89.5078,"sma_20":95.4449,"sma_50":90.994,"sma_150":105.7906,"sma_200":105.197,"ema_4":79.716,"ema_9":86.2052,"ema_21":91.5696,"bbands_lower":77.0415,"bbands_middle":95.4449,"bbands_upper":113.8483,"pivot_high":76.06,"pivot_low":73.99,"pivot_high_triggered":null,"pivot_low_triggered":null,"company_name":"AAON, Inc. - Common Stock"},{"symbol":"AAP","date":"2025-06-12T00:00:00.000Z","rsi":58.6254,"macd":4.406297,"macd_signal":4.374231,"macd_hist":0.032066,"mom":2.45,"roc":5.0662,"adx":50.5049,"atr":2.218,"ad":-3317512.5548,"cmf":0.324,"mfi":72.0906,"td_sequential":2,"td_combo":2,"marketwatch":-2,"dm":-0.94,"sma_10":51.381,"sma_20":46.581,"sma_50":38.2954,"sma_150":40.9303,"sma_200":40.5133,"ema_4":51.5739,"ema_9":50.8907,"ema_21":46.8892,"bbands_lower":31.1535,"bbands_middle":46.581,"bbands_upper":62.0085,"pivot_high":51.74,"pivot_low":50.49,"pivot_high_triggered":null,"pivot_low_triggered":null,"company_name":"Advance Auto Parts Inc."},{"symbol":"AAPG","date":"2025-06-12T00:00:00.000Z","rsi":82.2008,"macd":1.83596,"macd_signal":1.348442,"macd_hist":0.487518,"mom":6.67,"roc":26.3116,"adx":42.5447,"atr":1.2584,"ad":1334919.9187,"cmf":0.4085,"mfi":77.253,"td_sequential":-8,"td_combo":-1,"marketwatch":1,"dm":1.975,"sma_10":28.356,"sma_20":26.4148,"sma_50":24.109,"sma_150":null,"sma_200":null,"ema_4":30.4353,"ema_9":29.0313,"ema_21":27.1174,"bbands_lower":20.9995,"bbands_middle":26.4148,"bbands_upper":31.8301,"pivot_high":32.15,"pivot_low":31.3,"pivot_high_triggered":null,"pivot_low_triggered":null,"company_name":"Ascentage Pharma Group International - American Depository Shares"},{"symbol":"AAPL","date":"2025-06-12T00:00:00.000Z","rsi":40.8843,"macd":-1.271242,"macd_signal":-1.146426,"macd_hist":-0.124816,"mom":-0.75,"roc":-0.3751,"adx":21.9805,"atr":4.4893,"ad":50296271353.6593,"cmf":-0.0479,"mfi":43.4634,"td_sequential":4,"td_combo":3,"marketwatch":1,"dm":-1.0499,"sma_10":201.529,"sma_20":202.647,"sma_50":201.8383,"sma_150":223.4286,"sma_200":224.132,"ema_4":200.2253,"ema_9":201.0707,"ema_21":202.2119,"bbands_lower":194.4379,"bbands_middle":202.647,"bbands_upper":210.8561,"pivot_high":199.6799,"pivot_low":197.3601,"pivot_high_triggered":null,"pivot_low_triggered":null,"company_name":"Apple Inc. - Common Stock"},{"symbol":"AARD","date":"2025-06-12T00:00:00.000Z","rsi":47.4108,"macd":0.429708,"macd_signal":0.428395,"macd_hist":0.001313,"mom":0.76,"roc":7.3786,"adx":28.742,"atr":0.8568,"ad":315261.2035,"cmf":-0.0265,"mfi":57.4623,"td_sequential":2,"td_combo":4,"marketwatch":1,"dm":-0.46,"sma_10":11.449,"sma_20":10.843,"sma_50":9.7856,"sma_150":null,"sma_200":null,"ema_4":11.3493,"ema_9":11.3288,"ema_21":10.9436,"bbands_lower":9.2259,"bbands_middle":10.843,"bbands_upper":12.4601,"pivot_high":11.48,"pivot_low":10.5,"pivot_high_triggered":null,"pivot_low_triggered":null,"company_name":"Aardvark Therapeutics, Inc. - Common Stock"},{"symbol":"AAT","date":"2025-06-12T00:00:00.000Z","rsi":70.6877,"macd":0.342497,"macd_signal":0.259428,"macd_hist":0.083069,"mom":0.6785,"roc":3.4247,"adx":27.5974,"atr":0.4344,"ad":6803467.0985,"cmf":0.1555,"mfi":66.3896,"td_sequential":-12,"td_combo":-5,"marketwatch":1,"dm":-0.15,"sma_10":20.0288,"sma_20":19.7004,"sma_50":19.0193,"sma_150":22.1024,"sma_200":22.9954,"ema_4":20.332,"ema_9":20.1078,"ema_21":19.744,"bbands_lower":18.7213,"bbands_middle":19.7004,"bbands_upper":20.6796,"pivot_high":20.49,"pivot_low":20.08,"pivot_high_triggered":null,"pivot_low_triggered":null,"company_name":"American Assets Trust, Inc. Common Stock"},{"symbol":"AAUC","date":"2025-06-12T00:00:00.000Z","rsi":58.1503,"macd":0.763453,"macd_signal":0.791945,"macd_hist":-0.028492,"mom":1.24,"roc":9.1445,"adx":46.3999,"atr":0.5685,"ad":237674.6259,"cmf":0.1469,"mfi":53.3794,"td_sequential":4,"td_combo":-1,"marketwatch":1,"dm":0.16,"sma_10":14.8975,"sma_20":13.8688,"sma_50":12.4649,"sma_150":9.7891,"sma_200":9.1834,"ema_4":14.7044,"ema_9":14.6359,"ema_21":13.979,"bbands_lower":11.3726,"bbands_middle":13.8688,"bbands_upper":16.365,"pivot_high":14.98,"pivot_low":14.39,"pivot_high_triggered":null,"pivot_low_triggered":null,"company_name":"Allied Gold Corporation Common Shares"},{"symbol":"ABAT","date":"2025-06-12T00:00:00.000Z","rsi":42.9972,"macd":0.02025,"macd_signal":0.031152,"macd_hist":-0.010902,"mom":0.03,"roc":2.2388,"adx":17.4306,"atr":0.0847,"ad":-57108662.07,"cmf":-0.0164,"mfi":47.6465,"td_sequential":4,"td_combo":3,"marketwatch":0,"dm":0,"sma_10":1.415,"sma_20":1.4035,"sma_50":1.2946,"sma_150":1.2914,"sma_200":1.2219,"ema_4":1.3889,"ema_9":1.4021,"ema_21":1.3929,"bbands_lower":1.2439,"bbands_middle":1.4035,"bbands_upper":1.5631,"pivot_high":1.39,"pivot_low":1.36,"pivot_high_triggered":null,"pivot_low_triggered":null,"company_name":"American Battery Technology Company - Common Stock"},{"symbol":"ABBV","date":"2025-06-12T00:00:00.000Z","rsi":73.5241,"macd":1.164865,"macd_signal":0.299369,"macd_hist":0.865496,"mom":6.8,"roc":3.6634,"adx":17.5836,"atr":3.939,"ad":1069600435.9129,"cmf":0.3115,"mfi":87.2735,"td_sequential":-13,"td_combo":-2,"marketwatch":3,"dm":-1.65,"sma_10":188.757,"sma_20":186.293,"sma_50":185.0694,"sma_150":185.3551,"sma_200":186.4062,"ema_4":190.9463,"ema_9":189.3274,"ema_21":187.6853,"bbands_lower":180.0866,"bbands_middle":186.293,"bbands_upper":192.4994,"pivot_high":193.59,"pivot_low":187.41,"pivot_high_triggered":null,"pivot_low_triggered":null,"company_name":"AbbVie Inc. Common Stock"},{"symbol":"ABCB","date":"2025-06-12T00:00:00.000Z","rsi":55.4019,"macd":0.72329,"macd_signal":0.813837,"macd_hist":-0.090547,"mom":0.47,"roc":0.7595,"adx":23.4497,"atr":1.185,"ad":35378702.2803,"cmf":0.1373,"mfi":33.4434,"td_sequential":-5,"td_combo":1,"marketwatch":1,"dm":-0.72,"sma_10":61.789,"sma_20":62.055,"sma_50":58.5888,"sma_150":62.2362,"sma_200":62.0222,"ema_4":62.4108,"ema_9":62.1333,"ema_21":61.5803,"bbands_lower":60.2756,"bbands_middle":62.055,"bbands_upper":63.8344,"pivot_high":62.46,"pivot_low":61.5,"pivot_high_triggered":null,"pivot_low_triggered":null,"company_name":"Ameris Bancorp Common Stock"},{"symbol":"ABCL","date":"2025-06-12T00:00:00.000Z","rsi":84.9923,"macd":0.201672,"macd_signal":0.06921,"macd_hist":0.132463,"mom":1.11,"roc":54.4118,"adx":60.693,"atr":0.2264,"ad":3057993.9962,"cmf":0.1686,"mfi":85.391,"td_sequential":-12,"td_combo":-9,"marketwatch":-2,"dm":-0.06,"sma_10":2.561,"sma_20":2.2895,"sma_50":2.2858,"sma_150":2.6664,"sma_200":2.6564,"ema_4":2.9929,"ema_9":2.7133,"ema_21":2.4484,"bbands_lower":1.482,"bbands_middle":2.2895,"bbands_upper":3.097,"pivot_high":3.31,"pivot_low":3.08,"pivot_high_triggered":null,"pivot_low_triggered":null,"company_name":"AbCellera Biologics Inc. - Common Shares"},{"symbol":"ABEO","date":"2025-06-12T00:00:00.000Z","rsi":46.2587,"macd":0.182511,"macd_signal":0.220086,"macd_hist":-0.037575,"mom":0.085,"roc":1.3799,"adx":29.3817,"atr":0.3374,"ad":-24960830.9113,"cmf":0.0249,"mfi":46.2178,"td_sequential":2,"td_combo":3,"marketwatch":1,"dm":-0.12,"sma_10":6.3915,"sma_20":6.3087,"sma_50":5.6691,"sma_150":5.6454,"sma_200":5.7502,"ema_4":6.3321,"ema_9":6.3569,"ema_21":6.2223,"bbands_lower":5.8676,"bbands_middle":6.3087,"bbands_upper":6.7499,"pivot_high":6.31,"pivot_low":6.1,"pivot_high_triggered":null,"pivot_low_triggered":null,"company_name":"Abeona Therapeutics Inc. - Common Stock"},{"symbol":"ABEV","date":"2025-06-12T00:00:00.000Z","rsi":41.4064,"macd":0.001138,"macd_signal":0.009278,"macd_hist":-0.00814,"mom":-0.04,"roc":-1.6064,"adx":15.7357,"atr":0.0532,"ad":-849116112.8168,"cmf":0.0143,"mfi":36.479,"td_sequential":1,"td_combo":0,"marketwatch":-1,"dm":0,"sma_10":2.464,"sma_20":2.491,"sma_50":2.444,"sma_150":2.1511,"sma_200":2.1603,"ema_4":2.4631,"ema_9":2.4696,"ema_21":2.4758,"bbands_lower":2.4221,"bbands_middle":2.491,"bbands_upper":2.5599,"pivot_high":2.48,"pivot_low":2.44,"pivot_high_triggered":null,"pivot_low_triggered":null,"company_name":"Ambev S.A. American Depositary Shares (Each representing 1 Common Share)"},{"symbol":"ABG","date":"2025-06-12T00:00:00.000Z","rsi":62.6267,"macd":3.189858,"macd_signal":1.860914,"macd_hist":1.328944,"mom":13.43,"roc":5.9359,"adx":38.6491,"atr":5.5851,"ad":18284089.4691,"cmf":0.194,"mfi":66.8511,"td_sequential":-8,"td_combo":1,"marketwatch":-2,"dm":-4.05,"sma_10":234.547,"sma_20":232.0865,"sma_50":226.3448,"sma_150":247.7493,"sma_200":243.1528,"ema_4":239.7106,"ema_9":236.5352,"ema_21":232.8012,"bbands_lower":221.1188,"bbands_middle":232.0865,"bbands_upper":243.0542,"pivot_high":243.32,"pivot_low":238.55,"pivot_high_triggered":null,"pivot_low_triggered":null,"company_name":"Asbury Automotive Group Inc Common Stock"},{"symbol":"ABL","date":"2025-06-12T00:00:00.000Z","rsi":19.0826,"macd":-0.618054,"macd_signal":-0.422589,"macd_hist":-0.195466,"mom":-1.87,"roc":-24.2542,"adx":62.8728,"atr":0.5186,"ad":-11248293.2861,"cmf":-0.2962,"mfi":28.1844,"td_sequential":1,"td_combo":2,"marketwatch":-3,"dm":-0.29,"sma_10":6.508,"sma_20":7.4545,"sma_50":7.8067,"sma_150":7.7881,"sma_200":8.2754,"ema_4":6.0505,"ema_9":6.4208,"ema_21":7.1065,"bbands_lower":5.1282,"bbands_middle":7.4545,"bbands_upper":9.7808,"pivot_high":6.12,"pivot_low":5.79,"pivot_high_triggered":null,"pivot_low_triggered":null,"company_name":"Abacus Global Management, Inc. - Class A Common Stock"},{"symbol":"ABLV","date":"2025-06-12T00:00:00.000Z","rsi":40.7426,"macd":-0.002227,"macd_signal":0.005311,"macd_hist":-0.007537,"mom":-0.05,"roc":-4.4248,"adx":25.5088,"atr":0.1209,"ad":3919864.4665,"cmf":-0.0879,"mfi":30.672,"td_sequential":-2,"td_combo":1,"marketwatch":-1,"dm":-0.049,"sma_10":1.1835,"sma_20":1.16,"sma_50":1.1373,"sma_150":0.9857,"sma_200":1.0184,"ema_4":1.1458,"ema_9":1.162,"ema_21":1.1702,"bbands_lower":1.0404,"bbands_middle":1.16,"bbands_upper":1.2796,"pivot_high":1.25,"pivot_low":1.06,"pivot_high_triggered":null,"pivot_low_triggered":null,"company_name":"Able View Global Inc. - Class B Ordinary Shares"},{"symbol":"ABM","date":"2025-06-12T00:00:00.000Z","rsi":26.0937,"macd":-0.726231,"macd_signal":0.079987,"macd_hist":-0.806218,"mom":-5.96,"roc":-11.4002,"adx":52.3688,"atr":1.7528,"ad":56073952.5076,"cmf":-0.0216,"mfi":26.4627,"td_sequential":6,"td_combo":2,"marketwatch":1,"dm":-0.32,"sma_10":49.651,"sma_20":50.8705,"sma_50":49.0793,"sma_150":51.3557,"sma_200":51.5663,"ema_4":47.1692,"ema_9":48.6158,"ema_21":49.7867,"bbands_lower":46.1932,"bbands_middle":50.8705,"bbands_upper":55.5478,"pivot_high":46.75,"pivot_low":46,"pivot_high_triggered":null,"pivot_low_triggered":null,"company_name":"ABM Industries Incorporated Common Stock"},{"symbol":"ABNB","date":"2025-06-12T00:00:00.000Z","rsi":68.4525,"macd":3.206955,"macd_signal":2.699892,"macd_hist":0.507063,"mom":10.45,"roc":8.1412,"adx":32.4937,"atr":3.5021,"ad":271987321.9884,"cmf":0.1459,"mfi":49.5173,"td_sequential":1,"td_combo":-1,"marketwatch":1,"dm":-0.415,"sma_10":135.74,"sma_20":133.462,"sma_50":125.389,"sma_150":131.4087,"sma_200":130.3702,"ema_4":138.3312,"ema_9":136.638,"ema_21":133.494,"bbands_lower":123.9364,"bbands_middle":133.462,"bbands_upper":142.9876,"pivot_high":139.405,"pivot_low":136.7,"pivot_high_triggered":null,"pivot_low_triggered":null,"company_name":"Airbnb, Inc. - Class A Common Stock"}],"pagination":{"page":1,"limit":25,"total":5841031,"totalPages":233642,"hasNext":true,"hasPrev":false},"metadata":{"timeframe":"daily","symbol":"all","count":25,"start_date":null,"end_date":null,"timestamp":"2025-06-21T20:52:09.161Z","queryDebug":{"sql":"\n      SELECT \n        t.symbol,\n        t.date,\n        t.rsi,\n        t.macd,\n        t.macd_signal,\n        t.macd_hist,\n        t.mom,\n        t.roc,\n        t.adx,\n        t.atr,\n        t.ad,\n        t.cmf,\n        t.mfi,\n        t.td_sequential,\n        t.td_combo,\n        t.marketwatch,\n        t.dm,\n        t.sma_10,\n        t.sma_20,\n        t.sma_50,\n        t.sma_150,\n        t.sma_200,\n        t.ema_4,\n        t.ema_9,\n        t.ema_21,\n        t.bbands_lower,\n        t.bbands_middle,\n        t.bbands_upper,\n        t.pivot_high,\n        t.pivot_low,\n        t.pivot_high_triggered,\n        t.pivot_low_triggered,\n        ss.security_name as company_name\n      FROM technical_data_daily t\n      LEFT JOIN stock_symbols ss ON t.symbol = ss.symbol\n      WHERE 1=1\n      ORDER BY t.date DESC, t.symbol ASC\n      LIMIT $1 OFFSET $2\n    ","params":[25,0]}}}
