{"success":true,"data":[{"id":10027,"symbol":"AAPL","firm":"Goldman Sachs","action":"Upgrade","from_grade":"Hold","to_grade":"Buy","date":"2025-09-26T05:00:00.000Z","details":"Strong earnings beat and positive outlook","fetched_at":"2025-09-28T02:44:21.101Z"},{"id":10028,"symbol":"MSFT","firm":"Morgan Stanley","action":"Upgrade","from_grade":"Neutral","to_grade":"Overweight","date":"2025-09-25T05:00:00.000Z","details":"Cloud growth accelerating","fetched_at":"2025-09-28T02:44:21.101Z"},{"id":10029,"symbol":"GOOGL","firm":"JP Morgan","action":"Upgrade","from_grade":"Underweight","to_grade":"Neutral","date":"2025-09-24T05:00:00.000Z","details":"Search revenue recovering","fetched_at":"2025-09-28T02:44:21.101Z"},{"id":3009,"symbol":"AAPL","firm":"Goldman Sachs","action":"Upgrade","from_grade":"Hold","to_grade":"Buy","date":"2025-09-24T05:00:00.000Z","details":"Strong earnings beat and positive outlook","fetched_at":"2025-09-25T10:26:42.482Z"},{"id":10030,"symbol":"TSLA","firm":"Credit Suisse","action":"Downgrade","from_grade":"Buy","to_grade":"Hold","date":"2025-09-23T05:00:00.000Z","details":"Delivery concerns persist","fetched_at":"2025-09-28T02:44:21.101Z"},{"id":3010,"symbol":"MSFT","firm":"Morgan Stanley","action":"Upgrade","from_grade":"Neutral","to_grade":"Overweight","date":"2025-09-23T05:00:00.000Z","details":"Cloud growth accelerating","fetched_at":"2025-09-25T10:26:42.482Z"},{"id":10031,"symbol":"NVDA","firm":"Deutsche Bank","action":"Upgrade","from_grade":"Hold","to_grade":"Buy","date":"2025-09-22T05:00:00.000Z","details":"AI demand driving growth","fetched_at":"2025-09-28T02:44:21.101Z"},{"id":3011,"symbol":"GOOGL","firm":"JP Morgan","action":"Upgrade","from_grade":"Underweight","to_grade":"Neutral","date":"2025-09-22T05:00:00.000Z","details":"Search revenue recovering","fetched_at":"2025-09-25T10:26:42.482Z"},{"id":10032,"symbol":"META","firm":"Barclays","action":"Neutral","from_grade":"Overweight","to_grade":"Equal Weight","date":"2025-09-21T05:00:00.000Z","details":"Metaverse spending concerns","fetched_at":"2025-09-28T02:44:21.101Z"},{"id":3012,"symbol":"TSLA","firm":"Credit Suisse","action":"Downgrade","from_grade":"Buy","to_grade":"Hold","date":"2025-09-21T05:00:00.000Z","details":"Delivery concerns persist","fetched_at":"2025-09-25T10:26:42.482Z"},{"id":10033,"symbol":"AMZN","firm":"UBS","action":"Upgrade","from_grade":"Neutral","to_grade":"Buy","date":"2025-09-20T05:00:00.000Z","details":"AWS margins improving","fetched_at":"2025-09-28T02:44:21.101Z"},{"id":3013,"symbol":"NVDA","firm":"Deutsche Bank","action":"Upgrade","from_grade":"Hold","to_grade":"Buy","date":"2025-09-20T05:00:00.000Z","details":"AI demand driving growth","fetched_at":"2025-09-25T10:26:42.482Z"},{"id":10034,"symbol":"NFLX","firm":"Citigroup","action":"Downgrade","from_grade":"Buy","to_grade":"Neutral","date":"2025-09-19T05:00:00.000Z","details":"Subscriber growth slowing","fetched_at":"2025-09-28T02:44:21.101Z"},{"id":3014,"symbol":"META","firm":"Barclays","action":"Neutral","from_grade":"Overweight","to_grade":"Equal Weight","date":"2025-09-19T05:00:00.000Z","details":"Metaverse spending concerns","fetched_at":"2025-09-25T10:26:42.482Z"},{"id":3015,"symbol":"AMZN","firm":"UBS","action":"Upgrade","from_grade":"Neutral","to_grade":"Buy","date":"2025-09-18T05:00:00.000Z","details":"AWS margins improving","fetched_at":"2025-09-25T10:26:42.482Z"},{"id":3016,"symbol":"NFLX","firm":"Citigroup","action":"Downgrade","from_grade":"Buy","to_grade":"Neutral","date":"2025-09-17T05:00:00.000Z","details":"Subscriber growth slowing","fetched_at":"2025-09-25T10:26:42.482Z"},{"id":10104,"symbol":"AMZN","firm":"Deutsche Bank","action":"Upgrade","from_grade":"Hold","to_grade":"Buy","date":"2024-01-19T06:00:00.000Z","details":"AWS margin improvement","fetched_at":"2025-09-28T19:50:59.914Z"},{"id":10099,"symbol":"AMZN","firm":"Deutsche Bank","action":"Upgrade","from_grade":"Hold","to_grade":"Buy","date":"2024-01-19T06:00:00.000Z","details":"AWS margin improvement","fetched_at":"2025-09-28T19:50:25.841Z"},{"id":10094,"symbol":"AMZN","firm":"Deutsche Bank","action":"Upgrade","from_grade":"Hold","to_grade":"Buy","date":"2024-01-19T06:00:00.000Z","details":"AWS margin improvement","fetched_at":"2025-09-28T19:49:36.204Z"},{"id":10089,"symbol":"AMZN","firm":"Deutsche Bank","action":"Upgrade","from_grade":"Hold","to_grade":"Buy","date":"2024-01-19T06:00:00.000Z","details":"AWS margin improvement","fetched_at":"2025-09-28T19:48:17.409Z"},{"id":10084,"symbol":"AMZN","firm":"Deutsche Bank","action":"Upgrade","from_grade":"Hold","to_grade":"Buy","date":"2024-01-19T06:00:00.000Z","details":"AWS margin improvement","fetched_at":"2025-09-28T19:47:32.684Z"},{"id":10079,"symbol":"AMZN","firm":"Deutsche Bank","action":"Upgrade","from_grade":"Hold","to_grade":"Buy","date":"2024-01-19T06:00:00.000Z","details":"AWS margin improvement","fetched_at":"2025-09-28T19:45:02.745Z"},{"id":10074,"symbol":"AMZN","firm":"Deutsche Bank","action":"Upgrade","from_grade":"Hold","to_grade":"Buy","date":"2024-01-19T06:00:00.000Z","details":"AWS margin improvement","fetched_at":"2025-09-28T19:44:42.172Z"},{"id":10069,"symbol":"AMZN","firm":"Deutsche Bank","action":"Upgrade","from_grade":"Hold","to_grade":"Buy","date":"2024-01-19T06:00:00.000Z","details":"AWS margin improvement","fetched_at":"2025-09-28T18:59:58.627Z"},{"id":10064,"symbol":"AMZN","firm":"Deutsche Bank","action":"Upgrade","from_grade":"Hold","to_grade":"Buy","date":"2024-01-19T06:00:00.000Z","details":"AWS margin improvement","fetched_at":"2025-09-28T11:08:21.752Z"},{"id":10059,"symbol":"AMZN","firm":"Deutsche Bank","action":"Upgrade","from_grade":"Hold","to_grade":"Buy","date":"2024-01-19T06:00:00.000Z","details":"AWS margin improvement","fetched_at":"2025-09-28T07:16:55.255Z"},{"id":10054,"symbol":"AMZN","firm":"Deutsche Bank","action":"Upgrade","from_grade":"Hold","to_grade":"Buy","date":"2024-01-19T06:00:00.000Z","details":"AWS margin improvement","fetched_at":"2025-09-28T07:06:37.688Z"},{"id":10049,"symbol":"AMZN","firm":"Deutsche Bank","action":"Upgrade","from_grade":"Hold","to_grade":"Buy","date":"2024-01-19T06:00:00.000Z","details":"AWS margin improvement","fetched_at":"2025-09-28T06:50:52.663Z"},{"id":10044,"symbol":"AMZN","firm":"Deutsche Bank","action":"Upgrade","from_grade":"Hold","to_grade":"Buy","date":"2024-01-19T06:00:00.000Z","details":"AWS margin improvement","fetched_at":"2025-09-28T06:50:16.723Z"},{"id":10039,"symbol":"AMZN","firm":"Deutsche Bank","action":"Upgrade","from_grade":"Hold","to_grade":"Buy","date":"2024-01-19T06:00:00.000Z","details":"AWS margin improvement","fetched_at":"2025-09-28T06:41:43.012Z"},{"id":10026,"symbol":"AMZN","firm":"Deutsche Bank","action":"Upgrade","from_grade":"Hold","to_grade":"Buy","date":"2024-01-19T06:00:00.000Z","details":"AWS margin improvement","fetched_at":"2025-09-27T16:18:48.053Z"},{"id":10021,"symbol":"AMZN","firm":"Deutsche Bank","action":"Upgrade","from_grade":"Hold","to_grade":"Buy","date":"2024-01-19T06:00:00.000Z","details":"AWS margin improvement","fetched_at":"2025-09-27T16:11:48.592Z"},{"id":10016,"symbol":"AMZN","firm":"Deutsche Bank","action":"Upgrade","from_grade":"Hold","to_grade":"Buy","date":"2024-01-19T06:00:00.000Z","details":"AWS margin improvement","fetched_at":"2025-09-27T16:11:15.489Z"},{"id":10011,"symbol":"AMZN","firm":"Deutsche Bank","action":"Upgrade","from_grade":"Hold","to_grade":"Buy","date":"2024-01-19T06:00:00.000Z","details":"AWS margin improvement","fetched_at":"2025-09-27T16:09:09.594Z"},{"id":10006,"symbol":"AMZN","firm":"Deutsche Bank","action":"Upgrade","from_grade":"Hold","to_grade":"Buy","date":"2024-01-19T06:00:00.000Z","details":"AWS margin improvement","fetched_at":"2025-09-27T16:08:57.994Z"},{"id":10001,"symbol":"AMZN","firm":"Deutsche Bank","action":"Upgrade","from_grade":"Hold","to_grade":"Buy","date":"2024-01-19T06:00:00.000Z","details":"AWS margin improvement","fetched_at":"2025-09-27T16:08:13.157Z"},{"id":9996,"symbol":"AMZN","firm":"Deutsche Bank","action":"Upgrade","from_grade":"Hold","to_grade":"Buy","date":"2024-01-19T06:00:00.000Z","details":"AWS margin improvement","fetched_at":"2025-09-27T16:06:44.307Z"},{"id":9991,"symbol":"AMZN","firm":"Deutsche Bank","action":"Upgrade","from_grade":"Hold","to_grade":"Buy","date":"2024-01-19T06:00:00.000Z","details":"AWS margin improvement","fetched_at":"2025-09-27T15:43:52.716Z"},{"id":9986,"symbol":"AMZN","firm":"Deutsche Bank","action":"Upgrade","from_grade":"Hold","to_grade":"Buy","date":"2024-01-19T06:00:00.000Z","details":"AWS margin improvement","fetched_at":"2025-09-27T14:12:40.128Z"},{"id":9981,"symbol":"AMZN","firm":"Deutsche Bank","action":"Upgrade","from_grade":"Hold","to_grade":"Buy","date":"2024-01-19T06:00:00.000Z","details":"AWS margin improvement","fetched_at":"2025-09-27T13:46:48.959Z"},{"id":9971,"symbol":"AMZN","firm":"Deutsche Bank","action":"Upgrade","from_grade":"Hold","to_grade":"Buy","date":"2024-01-19T06:00:00.000Z","details":"AWS margin improvement","fetched_at":"2025-09-27T07:59:12.015Z"},{"id":9966,"symbol":"AMZN","firm":"Deutsche Bank","action":"Upgrade","from_grade":"Hold","to_grade":"Buy","date":"2024-01-19T06:00:00.000Z","details":"AWS margin improvement","fetched_at":"2025-09-27T07:59:11.976Z"},{"id":9961,"symbol":"AMZN","firm":"Deutsche Bank","action":"Upgrade","from_grade":"Hold","to_grade":"Buy","date":"2024-01-19T06:00:00.000Z","details":"AWS margin improvement","fetched_at":"2025-09-27T02:48:34.885Z"},{"id":9956,"symbol":"AMZN","firm":"Deutsche Bank","action":"Upgrade","from_grade":"Hold","to_grade":"Buy","date":"2024-01-19T06:00:00.000Z","details":"AWS margin improvement","fetched_at":"2025-09-27T02:48:34.846Z"},{"id":9951,"symbol":"AMZN","firm":"Deutsche Bank","action":"Upgrade","from_grade":"Hold","to_grade":"Buy","date":"2024-01-19T06:00:00.000Z","details":"AWS margin improvement","fetched_at":"2025-09-27T00:52:10.584Z"},{"id":9946,"symbol":"AMZN","firm":"Deutsche Bank","action":"Upgrade","from_grade":"Hold","to_grade":"Buy","date":"2024-01-19T06:00:00.000Z","details":"AWS margin improvement","fetched_at":"2025-09-27T00:52:10.551Z"},{"id":9941,"symbol":"AMZN","firm":"Deutsche Bank","action":"Upgrade","from_grade":"Hold","to_grade":"Buy","date":"2024-01-19T06:00:00.000Z","details":"AWS margin improvement","fetched_at":"2025-09-27T00:43:44.655Z"},{"id":9936,"symbol":"AMZN","firm":"Deutsche Bank","action":"Upgrade","from_grade":"Hold","to_grade":"Buy","date":"2024-01-19T06:00:00.000Z","details":"AWS margin improvement","fetched_at":"2025-09-27T00:43:44.611Z"},{"id":9931,"symbol":"AMZN","firm":"Deutsche Bank","action":"Upgrade","from_grade":"Hold","to_grade":"Buy","date":"2024-01-19T06:00:00.000Z","details":"AWS margin improvement","fetched_at":"2025-09-26T23:42:07.056Z"},{"id":9926,"symbol":"AMZN","firm":"Deutsche Bank","action":"Upgrade","from_grade":"Hold","to_grade":"Buy","date":"2024-01-19T06:00:00.000Z","details":"AWS margin improvement","fetched_at":"2025-09-26T23:42:06.998Z"}],"pagination":{"page":1,"limit":50,"total":9974,"totalPages":200,"hasMore":true},"source":"YFinance via loadanalystupgradedowngrade.py","timestamp":"2025-09-29T22:22:44.743Z"}